{
	"framework": "jasmine",
	"src_files": [
		
		"lib/underscore.js",
		
		"src/jason.js",
		"src/flattener.js",
		"src/filtrator.js",
		"src/extractor.js",
		"src/homogenizer.js",
		"src/locator.js",
		
		"tests/hello_world.js",
		"tests/jason_helper_test.js",
		"tests/jason_test.js",
		"tests/flattener_test.js",
		"tests/filtrator_test.js"
	]
}